<svg id="Ebene_1" data-name="Ebene 1" xmlns="http://www.w3.org/2000/svg" viewBox="0 0 11.88 13.25">
  <title>merseburg</title>
  <path fill="#FF0000" d="M11.62,13.25H10L9.5,13,6.08,8.73H5.82L2.38,13l-.5.25H.25L0,13V10.32l3.17-3.7V6.35L.25,2.88V.25L.5,0H2.12l.5.25,3.26,4h.24l3.13-4L9.75,0h1.63l.24.25V2.88L8.75,6.38v.24l3.13,3.76V13Z"/>
</svg>
