<svg id="Ebene_1" data-name="Ebene 1" xmlns="http://www.w3.org/2000/svg" viewBox="0 0 9 9">
  <title>aschheim</title>
  <path fill="#FF0000" d="M9,4.62,4.62,9H4.38L0,4.62V4.38L4.38,0h.24L9,4.38Z"/>
</svg>
