<svg id="Ebene_1" data-name="Ebene 1" xmlns="http://www.w3.org/2000/svg" viewBox="0 0 224 278">
  <title>germany</title>
  <g id="germany">
    <path fill="#FF0000" d="M108.22,278a3.54,3.54,0,0,1-2.21-.77L94.4,268l-24-8.45-3.5,5.25a3.56,3.56,0,0,1-3,1.59H43.14a3.56,3.56,0,0,1-3.38-3.71l1-24.67a3.7,3.7,0,0,1,.47-1.62l11.19-19.5-28-6.47a3.56,3.56,0,0,1-1.66-.9L11.17,198.47a3.56,3.56,0,0,1-1-3.44L12.68,185l-7-6.63a3.56,3.56,0,0,1-.4-4.73l6.21-8.29L.9,144.65a3.52,3.52,0,0,1-.07-3.1l5-10.82L.17,113.42c0-.14-.08-.29-.11-.44a3.56,3.56,0,0,1,2.87-4.17l17.85-3.25-.39-1a3.56,3.56,0,0,1,.11-2.91l4.56-9.11-4.72-6.29a3.56,3.56,0,0,1,2.1-5.63l4.29-.92.44-21.34c0-.12,0-.18,0-.25l.5-7A3.59,3.59,0,0,1,30.21,48l20.13-6a3.55,3.55,0,0,1,4.13,1.66l3.25,5.75,4.55-9.11a3.55,3.55,0,0,1,3.61-1.94l12.17,1.44L67.76,27.52a3.57,3.57,0,0,1,0-4.61l3.8-4.49L63,5.55A3.58,3.58,0,0,1,65.18.09l0-.07.61,0a3.94,3.94,0,0,1,.69.05l31.19,5A3.57,3.57,0,0,1,100,6.41l8,10.26L125.48,20a3.55,3.55,0,0,1,2.42,5.32l-4,6.73,5.75,1.83,5.56-4.37a4,4,0,0,1,1-.56l32.47-11.33a3.58,3.58,0,0,1,3.46.63l10.9,9.09,5-.58a3.56,3.56,0,0,1,3.81,2.49l2.31,7.56,8.14,3.86a3.6,3.6,0,0,1,1.88,2.18l5.29,17.37a3.63,3.63,0,0,1-.5,3.1L202.89,72l10.58,11.21a3.64,3.64,0,0,1,1,2.59l-1,25.08L223.67,133a3.54,3.54,0,0,1,.08,2.8l-5.53,14.1a3.57,3.57,0,0,1-6.45.39l-2.86-5.3-1.89-.63-1.08,1.94a3.66,3.66,0,0,1-1.69,1.54l-46.92,20.45,6.7,10.05a3.54,3.54,0,0,1,.3,3.38l-2,4.72,32.86,30a3.61,3.61,0,0,1,1.15,2.48l.5,11.58a3.59,3.59,0,0,1-.16,1.23,3.57,3.57,0,0,1-4.47,2.32l-6.06-1.92-1,3.53a3.61,3.61,0,0,1-1.48,2L171,245.91l4.1,22.35a3.56,3.56,0,0,1-6,3.16l-5.89-5.89-8.49-2.43-22,9.1a3.59,3.59,0,0,1-2.62,0l-7.86-2.95L116,267.73l.2.87a3.59,3.59,0,0,1-.82,3.19l-4.53,5A3.57,3.57,0,0,1,108.22,278ZM69.4,256.56l26.24,9.24,11.94,9.46a1.05,1.05,0,0,0,1.43-.12l4.52-5a1,1,0,0,0,.24-.93l-1.12-4.88,10.43,2.61,7.93,3a1.08,1.08,0,0,0,.77,0l22.8-9.43,10,2.85,6.35,6.35a1.06,1.06,0,0,0,1.48,0,1,1,0,0,0,.28-.93l-4.4-24,14-9.18a1.07,1.07,0,0,0,.44-.6l1.71-6,8.54,2.7a1,1,0,0,0,.79-.07,1.08,1.08,0,0,0,.52-.61,1.5,1.5,0,0,0,.05-.37L193.8,219a1.06,1.06,0,0,0-.33-.73l-34.18-31.21L162,180.7a1.08,1.08,0,0,0-.09-1l-8.36-12.54,49.67-21.66a1,1,0,0,0,.49-.45l2.1-3.77,4.83,1.6,3.32,6.18a1,1,0,0,0,1.42.42,1,1,0,0,0,.47-.54l5.54-14.09a1.06,1.06,0,0,0,0-.82l-10.47-22.68,1-25.68a1,1,0,0,0-.28-.75l-12-12.72L207,61.81a1,1,0,0,0,.15-.9l-5.29-17.37a1.06,1.06,0,0,0-.55-.64l-9.14-4.34-2.64-8.62a1,1,0,0,0-1.11-.73l-6.1.7-11.73-9.78a1.07,1.07,0,0,0-1-.18L137.07,31.28a1.08,1.08,0,0,0-.3.16l-6.61,5.2-10-3.21L125.73,24a1.06,1.06,0,0,0-.37-1.44,1,1,0,0,0-.34-.12L106.55,19,98,8a1,1,0,0,0-.66-.39l-31.2-5-.11,0h-.09a1,1,0,0,0-1,1.08.94.94,0,0,0,.17.54L74.72,18.6l-5,5.94a1,1,0,0,0,0,1.35L84.09,43,65.58,40.8a1,1,0,0,0-1.06.57L57.85,54.72l-5.57-9.88a1,1,0,0,0-1.21-.48l-20.13,6a1,1,0,0,0-.74.92l-.51,7-.48,23.4L23,83.1a1,1,0,0,0-.8,1.25,1,1,0,0,0,.19.41L28,92.29l-5.25,10.5a1.05,1.05,0,0,0,0,.85l1.54,3.85-20.88,3.8a1,1,0,0,0-.67.44,1,1,0,0,0-.17.78.39.39,0,0,0,0,.13l5.92,18.24L3.12,142.6a1,1,0,0,0,0,.91l11.28,22.07-7.16,9.55a1,1,0,0,0,.12,1.39l8.11,7.63-2.88,11.5a1,1,0,0,0,.3,1l11.57,11.08A1.06,1.06,0,0,0,25,208l31.33,7.24L43.41,237.67a1.17,1.17,0,0,0-.13.48l-1,24.66a1.06,1.06,0,0,0,.28.76,1,1,0,0,0,.72.33H64a1.06,1.06,0,0,0,.87-.47Z"/>
  </g>
  <path fill="#FF0000" id="merseburg" d="M152.75,120H151.5l-.5-.25-2.87-3.37h-.25L145,119.75l-.37.25h-1.38l-.25-.25v-2l2.63-3.1v-.25l-2.37-2.89v-2.24l.25-.25h1.29l.46.25,2.63,3.38h.25l2.75-3.38.37-.25h1.37l.26.25v2.13l-2.5,3v.25l2.62,3.12v2Z"/>
  <path fill="#FF0000" id="thoerey" d="M127.8,152.33c-3.35,0-5.59-2.24-5.59-5.82s2.24-5.82,5.59-5.82,5.6,2.24,5.6,5.82S131.16,152.33,127.8,152.33Zm0-9c-1.56,0-2.46,1.12-2.46,3.13s.9,3.14,2.46,3.14,2.46-1.12,2.46-3.14S129.37,143.38,127.8,143.38Z"/>
  <path fill="#FF0000" id="aschheim" d="M136,217.63,132.63,221h-.25L129,217.63v-.25l3.38-3.38h.25l3.37,3.38Z"/>
</svg>
