
<svg height="10" width="27" version="1.1" id="Ebene_1" xmlns="http://www.w3.org/2000/svg" xmlns:xlink="http://www.w3.org/1999/xlink" x="0px" y="0px"
	 viewBox="0 0 27 10" enable-background="new 0 0 27 10" xml:space="preserve">
<title>pointer-swipe</title>
<polygon fill="#FF0000" points="22.3,0.2 21.9,0 20.4,0 20.1,0.2 20.1,0.4 23.8,4 23.8,4.2 3.2,4.2 3.2,4 6.9,0.4 6.9,0.2 6.6,0
	5.1,0 4.7,0.2 0,4.8 0,5.2 4.7,9.8 5.1,10 6.6,10 6.9,9.8 6.9,9.6 3.2,6 3.2,5.8 23.8,5.8 23.8,6 20.1,9.6 20.1,9.8 20.4,10
	21.9,10 22.3,9.8 27,5.2 27,4.8 "/>
</svg>
