<svg xmlns="http://www.w3.org/2000/svg" xmlns:xlink="http://www.w3.org/1999/xlink" width="1920" height="1080" viewBox="0 0 1920 1080">
  <defs>
    <clipPath id="clip-path">
      <path id="Контур_195" data-name="Контур 195" d="M0,0H1920V-1080H0Z" fill="none"/>
    </clipPath>
    <linearGradient id="linear-gradient" x2="1" gradientUnits="objectBoundingBox">
      <stop offset="0" stop-color="#7e0000"/>
      <stop offset="0.1" stop-color="#740000"/>
      <stop offset="0.2" stop-color="#6a0000"/>
      <stop offset="0.3" stop-color="#600000"/>
      <stop offset="0.4" stop-color="#560000"/>
      <stop offset="0.5" stop-color="#4b0000"/>
      <stop offset="0.6" stop-color="#410000"/>
      <stop offset="0.7" stop-color="#370000"/>
      <stop offset="0.8" stop-color="#2d0000"/>
      <stop offset="0.9" stop-color="#230000"/>
      <stop offset="1" stop-color="#180000"/>
    </linearGradient>
    <clipPath id="clip-path-2">
      <path id="Контур_197" data-name="Контур 197" d="M1911.132-1080,1648.015-624.2l20.183,11.654,251.8-436.2V-1080Zm-74.809,0L1614.854-663.411l20.578,10.942L1862.719-1080Zm-72.1,0L1580.055-702.336,1601-692.117,1790.154-1080Zm-69.7,0L1543.585-740.918l21.288,9.481L1720.037-1080Zm-67.579,0L1505.4-779.1,1527-770.366,1652.083-1080Zm-65.714,0-95.781,263.2,21.9,7.971L1586.033-1080Zm-64.078,0-73.441,226.063,22.164,7.2L1521.658-1080Zm-62.659,0-54.349,189.564,22.4,6.425L1458.743-1080Zm-61.428,0-38.34,153.8,22.612,5.638L1397.087-1080Zm-60.383,0-25.262,118.867,22.8,4.846L1336.511-1080Zm-59.508,0-14.961,84.86,22.95,4.046L1276.842-1080Zm-58.793,0-7.293,51.9,23.078,3.244,7.749-55.146Zm-58.234,0-2.112,20.1,23.177,2.436,2.369-22.538Zm543.444,495.236,19.764,12.351L1920-925.567v-43.985Zm30.026,39.624,19.322,13.034L1920-815.4v-41.685Zm28.533,39.751,18.853,13.7L1920-716.064v-39.653Zm27.076,39.845,18.367,14.35L1920-625.81v-37.861Zm25.661,39.914,17.852,14.983L1920-543.26v-36.26Zm24.293,39.944,17.32,15.6,87.5-97.19v-34.836Zm22.965,39.947,16.764,16.191L1920-396.957v-33.554Zm21.68,39.929,16.191,16.767L1920-331.52v-32.4Zm20.438,39.889,15.6,17.322L1920-270.336V-301.7Zm19.232,39.836,14.979,17.855,5.522-4.634v-30.427Zm18.065,39.764L1920-183.2v-5.021Z" fill="none"/>
    </clipPath>
    <linearGradient id="linear-gradient-2" x1="-1.357" y1="0.26" x2="1.255" y2="0.26" gradientUnits="objectBoundingBox">
      <stop offset="0" stop-color="#4b0000"/>
      <stop offset="0.1" stop-color="#5d0000"/>
      <stop offset="0.2" stop-color="#6f0000"/>
      <stop offset="0.3" stop-color="#810000"/>
      <stop offset="0.4" stop-color="#930000"/>
      <stop offset="0.5" stop-color="#a50000"/>
      <stop offset="0.6" stop-color="#b70000"/>
      <stop offset="0.7" stop-color="#c90000"/>
      <stop offset="0.8" stop-color="#db0000"/>
      <stop offset="0.9" stop-color="#ed0000"/>
      <stop offset="1" stop-color="red"/>
    </linearGradient>
    <clipPath id="clip-path-3">
      <path id="Контур_199" data-name="Контур 199" d="M1078.33-1080l-34.751,497.039,23.248,1.628L1101.692-1080Zm-57.554,0L1003.75-592.382l23.291.812L1044.095-1080Zm-57.429,0v478.978h23.3V-1080Zm-57.441,0,16.45,471.164,23.291-.812L929.224-1080Zm-57.6,0,32.455,464.2,23.247-1.625L871.67-1080Zm-57.891,0,48.14,458.108,23.176-2.434L813.848-1080Zm-58.336,0,63.644,452.922L818.8-630.32,755.614-1080Zm-58.924,0,79.1,448.689,22.951-4.048L696.821-1080Zm-59.669,0,94.663,445.428,22.8-4.846L637.315-1080Zm-60.575,0L663.394-636.814l22.613-5.64L576.932-1080Zm-61.654,0L617.98-638l22.4-6.425L515.5-1080Zm-62.917,0L571.907-638.081l22.165-7.2L452.847-1080Zm-64.376,0L525.174-637.012l21.9-7.971L388.766-1080Zm-66.049,0L477.783-634.742l21.608-8.734L323.053-1080Zm-67.954,0L429.744-631.212l21.29-9.48L255.473-1080Zm-70.118,0L381.057-626.374,402-636.593,185.775-1080Zm-72.562,0L331.735-620.178l20.576-10.943L113.678-1080Zm-75.325,0L281.8-612.541,301.984-624.2,38.868-1080ZM1082.845-572.746l23.179,2.435,51.192-487.149-23.176-2.439Zm38.723,10.953,23.078,3.243,65.525-466.3-23.078-3.243ZM0-973.586,231.265-603.425l19.763-12.353L0-1017.573Zm1159.757,423.5,22.95,4.047,78.461-445.05-22.949-4.048Zm37.672,12.418,22.8,4.847,89.995-423.462-22.8-4.847Zm37.172,13.124,22.612,5.639L1357.341-920.56l-22.611-5.64ZM0-859.888,180.161-592.746l19.321-13.035L0-901.572ZM1271.284-510.716l22.4,6.423,108.864-379.718-22.4-6.423Zm36.215,14.51,22.163,7.2,116.217-357.734-22.165-7.2Zm35.76,15.188,21.9,7.971,122.193-335.779-21.9-7.972ZM0-757.363,128.517-580.447l18.854-13.7L0-797.016ZM1378.572-465.146l21.608,8.73L1527-770.367,1505.4-779.1Zm34.888,16.537,21.289,9.481,130.124-292.31-21.29-9.481Zm34.474,17.206,20.947,10.217L1601-692.116l-20.946-10.219ZM0-664.216l76.363,97.757,18.365-14.349L0-702.074ZM1482.356-414.177l20.578,10.942,132.5-249.234-20.578-10.942Zm33.86,18.3,20.184,11.654,131.8-228.321L1648.017-624.2ZM0-579.019l23.749,28.307L41.6-565.694,0-615.279ZM1549.414-376.395l19.764,12.352,130.18-208.368-19.763-12.352Zm32.512,20.6,19.323,13.035,127.695-189.347-19.323-13.035Zm31.792,21.7,18.855,13.7,124.435-171.3-18.855-13.7Zm31.02,22.8,18.363,14.353,120.5-154.25-18.364-14.351Zm30.193,23.888,17.851,14.982,115.962-138.221-17.853-14.983Zm29.34,24.92,17.318,15.6,110.913-123.2-17.318-15.6Zm28.458,25.934,16.763,16.193,105.421-109.185-16.765-16.194Zm27.528,26.914,16.191,16.766,99.572-96.17-16.191-16.767Zm26.571,27.865,15.593,17.321,93.441-84.145-15.594-17.319Zm25.558,28.8,14.979,17.855,87.115-73.109-14.98-17.855Zm24.53,29.676,14.347,18.367L1920-158.645V-183.2l-2.437-3.12Zm23.478,30.517,13.7,18.854L1920-107.289V-136.1Zm22.391,31.315,13.031,19.326L1920-58.455V-86.572Zm21.282,32.084,12.351,19.769L1920-11.853V-39.341Z" fill="none"/>
    </clipPath>
    <linearGradient id="linear-gradient-3" x1="-0.455" y1="1.427" x2="1.08" y2="1.427" gradientUnits="objectBoundingBox">
      <stop offset="0" stop-color="red"/>
      <stop offset="0.1" stop-color="#ed0000"/>
      <stop offset="0.2" stop-color="#db0000"/>
      <stop offset="0.3" stop-color="#c90000"/>
      <stop offset="0.4" stop-color="#b70000"/>
      <stop offset="0.5" stop-color="#a50000"/>
      <stop offset="0.6" stop-color="#930000"/>
      <stop offset="0.7" stop-color="#810000"/>
      <stop offset="0.8" stop-color="#6f0000"/>
      <stop offset="0.9" stop-color="#5d0000"/>
      <stop offset="1" stop-color="#4b0000"/>
    </linearGradient>
    <clipPath id="clip-path-4">
      <path id="Контур_201" data-name="Контур 201" d="M571.908-638.082l51.219,157.668,22.165-7.2-51.22-157.667Zm-46.734,1.07,61.7,169.552,21.9-7.972-61.7-169.552Zm92.8-.987,41.832,145.9,22.4-6.423-41.833-145.9Zm-140.2,3.253L551.1-453.252l21.609-8.729L499.392-643.475Zm185.609-2.069,33.486,134.332,22.614-5.64L686.007-642.455Zm-233.65,5.6L515.85-437.782l21.29-9.48L451.032-640.693Zm278.411-3.361,26.139,123.007,22.794-4.846L730.948-639.418Zm-327.1,8.2L481.161-421.1l20.948-10.22L402-636.594Zm371.206-4.938L772.008-519.3l22.95-4.047L775.211-635.36ZM331.735-620.177,447.066-403.235l20.579-10.942L352.312-631.12Zm463.99-6.9,14.244,101.363,23.077-3.244L818.8-630.319Zm42.833,5.185,9.574,91.1,23.175-2.439-9.574-91.1ZM281.8-612.543,413.6-384.221l20.183-11.655L301.984-624.2ZM880.763-615.8l5.68,81.273,23.251-1.625-5.68-81.272Zm-649.5,12.373L380.823-364.043,400.587-376.4,251.028-615.778Zm691.091-5.41,2.51,71.917,23.293-.813-2.51-71.916ZM180.162-592.746,348.7-342.841l19.321-13.034-168.535-249.9Zm783.186-8.278v63.06h23.3l0-63.06ZM128.516-580.447,316.561-321.583l18.855-13.7L147.371-594.147Zm873.325,42.777,23.29.813,1.909-54.714-23.29-.813Zm38.456,1.638,23.25,1.626,3.281-46.93-23.249-1.625ZM76.365-566.458,284.8-299.633l18.362-14.352L94.728-580.81Zm1002.31,33.414,23.176,2.435,4.172-39.7-23.175-2.434ZM23.748-550.712,253.4-276.983l17.852-14.981L41.6-565.694Zm1093.173,21.991L1140-525.479l4.647-33.073-23.079-3.242Zm38.072,5.647,22.95,4.048,4.764-27.017-22.95-4.047Zm37.854,6.962,22.8,4.846,4.582-21.559-22.8-4.847ZM0-500.606l222.367,247L239.686-269.2,0-535.44Zm1230.435-7.234,22.613,5.64,4.166-16.707-22.613-5.64Zm37.282,9.571,22.4,6.424,3.569-12.448-22.4-6.424Zm36.926,10.854,22.165,7.2,2.856-8.79-22.165-7.2Zm36.526,12.133,21.9,7.97,2.086-5.736-21.9-7.97Zm36.088,13.386,21.608,8.733,1.315-3.253-21.608-8.734ZM0-428.029l191.7,198.54,16.764-16.194L0-461.583Zm1412.858-19.227,21.293,9.472.6-1.348-21.293-9.472ZM0-360.5,161.378-204.631,177.567-221.4,0-392.9Zm0,63.145L131.429-179l15.594-17.322L0-328.719Zm0,59.312,101.84,85.468,14.979-17.855L0-268.468Zm0,55.953,72.611,56.74,14.347-18.367L0-211.667Zm0,53,43.765,31.8,13.7-18.859L0-157.9ZM0-78.695,15.286-68.382,28.32-87.7,0-106.809Z" fill="none"/>
    </clipPath>
    <linearGradient id="linear-gradient-4" x1="-1.766" y1="-0.492" x2="0.597" y2="-0.492" gradientUnits="objectBoundingBox">
      <stop offset="0" stop-color="red"/>
      <stop offset="0.1" stop-color="#fe0000"/>
      <stop offset="0.2" stop-color="#fb0000"/>
      <stop offset="0.3" stop-color="#f50000"/>
      <stop offset="0.4" stop-color="#eb0000"/>
      <stop offset="0.5" stop-color="#d00"/>
      <stop offset="0.6" stop-color="#ca0000"/>
      <stop offset="0.7" stop-color="#b30000"/>
      <stop offset="0.8" stop-color="#960000"/>
      <stop offset="0.9" stop-color="#740000"/>
      <stop offset="1" stop-color="#4b0000"/>
    </linearGradient>
    <clipPath id="clip-path-5">
      <path id="Контур_203" data-name="Контур 203" d="M316.564-321.578l.867,1.192,18.849-13.707-.867-1.193ZM284.8-299.635l2.16,2.765,18.366-14.349-2.16-2.766Zm-31.4,22.656,3.924,4.675,17.851-14.987-3.923-4.675ZM222.367-253.6l6.184,6.87,17.319-15.6-6.183-6.87ZM191.7-229.49l8.994,9.314,16.764-16.193-8.993-9.315Zm-30.317,24.859,12.383,11.962,16.191-16.767L177.569-221.4ZM131.428-179,147.8-164.248l15.6-17.322-16.378-14.749Zm-29.589,26.421,21.011,17.634L137.83-152.8,116.818-170.43Zm-29.23,27.226,26.315,20.561,14.346-18.369L86.957-143.718ZM43.765-97.287,76.057-73.822l13.7-18.856L57.461-116.144ZM15.286-68.381l39,26.306L67.314-61.4l-39-26.307ZM0-30.6,33.635-9.583,45.984-29.351,0-58.088ZM0,0H19.854L0-11.465Z" fill="none"/>
    </clipPath>
    <linearGradient id="linear-gradient-5" x1="0.69" y1="0.244" x2="3.301" y2="0.244" xlink:href="#linear-gradient-2"/>
    <clipPath id="clip-path-7">
      <path id="Контур_205" data-name="Контур 205" d="M2463.319-280.963l-11.653-20.186,180.007-103.944,11.653,20.186Zm4.818,65.119-10.942-20.58,207.33-110.257,10.942,20.581Zm2.513,64.217-10.218-20.951,234.93-114.6,10.218,20.952Zm.324,63.226-9.48-21.294,262.621-116.946,9.48,21.294Zm-1.758,62.169-8.73-21.611,290.271-117.294,8.73,21.611Zm-3.735,61.054-7.97-21.9,317.712-115.656,7.97,21.9Zm-5.612,59.89-7.2-22.167L2797.5-39.518l7.2,22.168Zm-7.374,58.679-6.424-22.406L2817.538,24.45l6.424,22.406Zm-9.042,57.435-5.639-22.618,397.505-99.124,5.638,22.618Zm-10.613,56.165-4.846-22.8,422.83-89.89,4.845,22.8Zm-12.089,54.878-4.047-22.954,447.3-78.886,4.047,22.953Zm-13.476,53.573-3.243-23.081,470.848-66.183,3.243,23.082ZM2392.5,427.709l-2.435-23.18,493.359-51.864,2.435,23.18Zm-15.981,50.954L2374.9,455.41l514.735-36,1.625,23.253ZM2359.4,528.309l-.815-23.3,534.895-18.681.815,23.295Zm-18.19,48.345V553.345H2895v23.308Zm-19.166,47.055.813-23.295,571.315,19.955-.813,23.295Zm-20.109,45.778,1.625-23.253,587.454,41.086-1.625,23.253ZM2280.974,714l2.436-23.18,602.112,63.3-2.437,23.181Zm-21.768,43.278,3.242-23.084L2877.7,820.682l-3.242,23.083Zm-22.536,42.054,4.047-22.954,626.866,110.552-4.047,22.954ZM2213.431,840.2l4.846-22.8,636.9,135.4-4.846,22.8Zm-23.9,39.682,5.638-22.616,645.313,160.921-5.637,22.616Zm-24.519,38.534L2171.436,896l642.752,184.336-6.423,22.408Zm-25.1,37.408,7.2-22.168,620.357,201.6-7.2,22.169Zm-25.646,36.31,7.97-21.9L2719.365,1187.6l-7.97,21.9Zm-26.159,35.238,8.73-21.61,573.183,231.618-8.73,21.611Zm-26.655,34.188,9.479-21.291L2619.6,1284.585l-9.48,21.292Zm-27.116,33.168,10.215-20.949,523.685,255.46-10.217,20.949Zm-27.551,32.176,10.941-20.58L2516.1,1371.35l-10.941,20.579Zm-27.972,31.2,11.652-20.185,472.852,273.045-11.652,20.186Zm-28.379,30.258,12.349-19.768,447.254,279.52-12.349,19.768Zm-28.757,29.342,13.034-19.322,421.662,284.46-13.034,19.323Zm-29.142,28.441,13.7-18.86,396.221,287.92-13.7,18.856Zm-29.495,27.571,14.347-18.367,371,289.907-14.347,18.368Zm-29.861,26.713,14.98-17.854,346.131,290.486-14.979,17.854Zm-30.2,25.889L1818.572,1309l321.672,289.682L2124.649,1616Zm-30.544,25.079,16.189-16.766,297.721,287.555-16.189,16.765Zm-30.893,24.286,16.764-16.193,274.361,284.153-16.764,16.194Zm-31.226,23.514,17.319-15.594,251.646,279.525-17.317,15.6Zm-31.563,22.767,17.852-14.981,229.649,273.729-17.852,14.982Zm-31.912,22.021,18.363-14.352,208.433,266.825-18.363,14.351Zm-32.254,21.3,18.854-13.7,188.045,258.864-18.855,13.7Zm-32.6,20.592,19.321-13.033,168.535,249.9-19.322,13.033Zm-32.57,20.521,19.764-12.354,149.559,239.383-19.764,12.353Zm98.6,247.8-131.8-228.32,20.183-11.655,131.8,228.321Zm-50.329,6.923-115.332-216.942,20.579-10.942,115.332,216.943Zm-49.69,5.475-100.106-205.278,20.948-10.22,100.106,205.279Zm-49.03,4.1-86.107-193.43,21.29-9.482,86.108,193.43Zm-48.359,2.782-73.315-181.494,21.609-8.729,73.314,181.493Zm-47.681,1.508-61.7-169.552,21.9-7.971,61.7,169.552Zm-47,.3-51.22-157.667,22.165-7.2,51.22,157.668Zm-46.31-.859-41.832-145.9,22.4-6.423,41.832,145.9Zm-45.624-1.968-33.487-134.332,22.614-5.641,33.486,134.332Zm-44.942-3.037-26.139-123.007,22.794-4.846,26.139,123.007Zm-44.263-4.058-19.747-112.01,22.95-4.047,19.747,112.01Zm-43.591-5.041-14.245-101.363,23.078-3.243,14.244,101.362Zm-42.931-5.991-9.574-91.1,23.175-2.437,9.574,91.1Zm-42.281-6.905-5.679-81.273,23.25-1.625,5.68,81.274Zm-41.634-7.775-2.51-71.917,23.293-.813,2.51,71.917Zm-41.005-8.625v-63.059h23.3l0,63.059Zm-40.388-9.452,1.91-54.714,23.29.813-1.909,54.714Zm-39.787-10.235,3.281-46.929,23.249,1.625-3.281,46.929Zm-39.2-11.023,4.173-39.7,23.175,2.435-4.172,39.7Zm-38.624-11.761L810,1655.479l23.079,3.242-4.647,33.073Zm-38.06-12.509,4.763-27.017,22.95,4.048-4.763,27.016Zm-37.518-13.217,4.581-21.56,22.8,4.846-4.582,21.56Zm-36.99-13.919,4.166-16.707,22.614,5.64-4.166,16.707Zm-36.473-14.614,3.568-12.447,22.4,6.423-3.568,12.448ZM620.336,1619l2.857-8.791,22.164,7.2-2.856,8.791Zm-35.495-15.955,2.087-5.736,21.9,7.969-2.087,5.737Zm-35.021-16.631,1.315-3.255,21.608,8.734-1.315,3.253ZM2443.755-366.672l153.069-95.663,12.35,19.768L2456.1-346.9Zm-10.4-66.22,126.68-85.462,13.032,19.324L2446.39-413.567ZM2420.374-499.7l100.955-73.361,13.7,18.858-100.955,73.36Zm-15.664-67.281,76.036-59.415,14.348,18.367-76.036,59.415Zm-18.429-67.629,52.033-43.668,14.98,17.855-52.034,43.668Zm-21.274-67.842,29.093-26.2,15.594,17.321-29.093,26.2Zm-24.189-67.919,7.314-7.065,16.191,16.767-7.314,7.065ZM536.543,1578.6l.6-1.347-21.294-9.473-.6,1.347Z" fill="none"/>
    </clipPath>
    <linearGradient id="linear-gradient-6" x1="0.28" y1="-0.508" x2="2.644" y2="-0.508" xlink:href="#linear-gradient-4"/>
  </defs>
  <g id="Сгруппировать_444" data-name="Сгруппировать 444" transform="translate(0 1080)">
    <g id="Сгруппировать_432" data-name="Сгруппировать 432" clip-path="url(#clip-path)">
      <g id="Сгруппировать_431" data-name="Сгруппировать 431" transform="rotate(-90)">
        <path id="Контур_194" data-name="Контур 194" d="M1080,0V1920H0V0Z" fill="url(#linear-gradient)"/>
      </g>
    </g>
    <g id="Сгруппировать_434" data-name="Сгруппировать 434" clip-path="url(#clip-path-2)">
      <g id="Сгруппировать_433" data-name="Сгруппировать 433" transform="translate(499.171 1465.285) rotate(-90)">
        <path id="Контур_196" data-name="Контур 196" d="M2545.285-499.171v1920h-1080v-1920Z" fill="url(#linear-gradient-2)"/>
      </g>
    </g>
    <g id="Сгруппировать_436" data-name="Сгруппировать 436" clip-path="url(#clip-path-3)">
      <g id="Сгруппировать_435" data-name="Сгруппировать 435" transform="translate(-873.962 461.309)">
        <path id="Контур_198" data-name="Контур 198" d="M873.962-1541.309h1920v1080h-1920Z" fill="url(#linear-gradient-3)"/>
      </g>
    </g>
    <g id="Сгруппировать_438" data-name="Сгруппировать 438" clip-path="url(#clip-path-4)">
      <g id="Сгруппировать_437" data-name="Сгруппировать 437" transform="translate(-945 1907.436) rotate(-90)">
        <path id="Контур_200" data-name="Контур 200" d="M2987.437,945V2865h-1080V945Z" fill="url(#linear-gradient-4)"/>
      </g>
    </g>
    <g id="Сгруппировать_440" data-name="Сгруппировать 440" clip-path="url(#clip-path-5)">
      <g id="Сгруппировать_439" data-name="Сгруппировать 439" transform="translate(1450.829 -335.286) rotate(90)">
        <path id="Контур_202" data-name="Контур 202" d="M-744.714,1450.829v-1920h1080v1920Z" fill="url(#linear-gradient-5)"/>
      </g>
    </g>
    <g id="Сгруппировать_443" data-name="Сгруппировать 443" clip-path="url(#clip-path)">
      <g id="Сгруппировать_442" data-name="Сгруппировать 442" clip-path="url(#clip-path-7)">
        <g id="Сгруппировать_441" data-name="Сгруппировать 441" transform="translate(2895 -777.437) rotate(90)">
          <path id="Контур_204" data-name="Контур 204" d="M-302.563,2895V975h1080V2895Z" fill="url(#linear-gradient-6)"/>
        </g>
      </g>
    </g>
  </g>
</svg>
