<?xml version="1.0" encoding="utf-8"?>
<!-- Generator: Adobe Illustrator 26.4.1, SVG Export Plug-In . SVG Version: 6.00 Build 0)  -->
<svg version="1.1" id="Layer_1" xmlns="http://www.w3.org/2000/svg" xmlns:xlink="http://www.w3.org/1999/xlink" x="0px" y="0px"
	 viewBox="0 0 32 32" style="enable-background:new 0 0 32 32;" xml:space="preserve">
<path d="M27,5H5C2.9,5,1.1,6.8,1,9.1v13.7C1.1,25.2,2.9,27,5,27H27c2.2,0,4-1.8,4-4.1V9.1C30.9,6.8,29.1,5,27,5z M5,7H27
	c0.2,0,0.3,0,0.5,0.1L19,16.8c-0.5,0.6-1.3,0.9-2,0.9h-2c-0.8,0-1.5-0.3-2-0.9L4.6,7C4.7,7,4.9,7,5,7z M29.1,22.9
	c0,1.2-1,2.2-2.1,2.2H5c-1.1,0-2.1-0.9-2.1-2.2V9.1c0-0.3,0.1-0.6,0.2-0.8l8.4,9.8c0.9,1,2.2,1.6,3.5,1.6h2c1.3,0,2.6-0.6,3.5-1.6
	l8.4-9.8c0.1,0.3,0.2,0.5,0.2,0.8C29.1,9.1,29.1,22.9,29.1,22.9z"/>
</svg>
