<?xml version="1.0" encoding="utf-8"?>
<!-- Generator: Adobe Illustrator 26.4.1, SVG Export Plug-In . SVG Version: 6.00 Build 0)  -->
<svg version="1.1" id="Layer_1" xmlns="http://www.w3.org/2000/svg" xmlns:xlink="http://www.w3.org/1999/xlink" x="0px" y="0px"
	 viewBox="0 0 32 32" style="enable-background:new 0 0 32 32;" xml:space="preserve">
<path d="M22.5,10L22.5,10c-1.5-0.1-3,0.4-4.3,1.3v-0.9H11V30h7.4v-9.7c0-2.9,0.8-3.5,2.3-3.5c1.4,0,1.8,0.8,1.8,3.7V30H30l0-10.6
	C30,15,29.1,10,22.5,10z M28,28h-3.4v-7.5c0-1.8,0-5.7-3.8-5.7c-4.3,0-4.3,4.1-4.3,5.5V28H13V12.5h3.2v1.4l0.1,1h1.6l0.3-0.5
	c0.9-1.5,2.5-2.4,4.3-2.3c4.1,0,5.5,1.9,5.5,7.4L28,28z M5.8,1C3.5,1,1.6,2.9,1.6,5.2c0,2.3,1.9,4.2,4.2,4.2s4.2-1.9,4.2-4.2
	C9.9,2.9,8.1,1,5.8,1z M5.8,7.4c-1.2,0-2.2-1-2.2-2.2S4.6,3,5.8,3C7,3,7.9,4,7.9,5.2C7.9,6.4,7,7.4,5.8,7.4z M2,30h7.5V10.5H2V30z
	 M4,12.5h3.5V28H4V12.5z"/>
</svg>
