<?xml version="1.0" encoding="UTF-8"?><!DOCTYPE svg PUBLIC "-//W3C//DTD SVG 1.1//EN" "http://www.w3.org/Graphics/SVG/1.1/DTD/svg11.dtd"><svg xmlns="http://www.w3.org/2000/svg" xmlns:xlink="http://www.w3.org/1999/xlink"><symbol id="icon-angle-top" viewBox="0 0 22 13">
    <path d="M11 0l11 11-2 2-9-9-9 9-2-2z"/>
</symbol><symbol id="icon-arrow-header-drop" viewBox="0 0 28 16">
    <path d="M.759 14.81v-1.896l.69-1.207L11.964 1.19 13.172.5h2.414l1.207.69L27.31 11.707l.69 1.207v1.896l-.517.69h-1.207L15.069 4.293h-1.207L2.655 15.5H1.448l-.69-.69z"/>
</symbol><symbol id="icon-arrow-simple-down" viewBox="0 0 50 50">
    <path d="M47.25 15l-2.086-2.086L25 33.078 4.836 12.914 2.75 15 25 37.25z"/>
</symbol><symbol id="icon-arrow-small-left" viewBox="0 0 17 8">
    <path d="M0 3.8v.4l3.8 3.6.3.2h1.3l.2-.2v-.1l-3-2.9v-.2h14.3l.1-.2v-.8l-.1-.2H2.6v-.2L5.5.3V.2L5.3 0H4.1l-.3.2L0 3.8z"/>
</symbol><symbol id="icon-arrow-small-vertical" viewBox="0 0 8 17">
    <path d="M7.8 13.3L8 13v-1.3l-.2-.2h-.1l-2.9 2.9h-.2V.1L4.4 0h-.8l-.2.1v14.3h-.2L.3 11.5H.2l-.2.2V13l.2.3 3.6 3.8h.4l3.6-3.8z"/>
</symbol><symbol id="icon-arrow-small" viewBox="0 0 17 8">
    <path d="M13.25.19L12.94 0h-1.25l-.19.19v.12l2.94 2.88v.19H.13L0 3.56v.88l.13.19h14.31v.18L11.5 7.69v.12l.19.19h1.25l.31-.19L17 4.19v-.38L13.25.19z"/>
</symbol><symbol id="icon-check" viewBox="0 0 13 12">
    <path d="M1 6.809L4.74 10 12 1" fill-rule="evenodd"/>
</symbol><symbol id="icon-clipboard" viewBox="0 0 26 25">
    <style>
        .st0{fill-rule:evenodd;clip-rule:evenodd}
    </style>
    <path d="M23 17h-1V3H12V2h11v15zM19 6H5v17h14V6zM7 8h10v13H7V8z"/>
</symbol><symbol id="icon-close" viewBox="0 0 14 14">
    <path d="M13.328 1.4l-.763-.764h-.51L7.22 5.473h-.51L1.874.636h-.509L.6 1.4v.509l4.837 4.836v.51L.6 12.09v.51l.764.763h.51L6.71 8.527h.509l4.836 4.837h.51l.763-.764v-.509L8.492 7.255v-.51l4.836-4.836v-.51z"/>
</symbol><symbol id="icon-download-vertical" viewBox="0 0 20 40">
    <path d="M9.2 0l-.4.4v23.2h-.4L.8 16H.4l-.4.4V18l.4.8L9.6 28h.8l9.2-9.2.4-.8v-1.6l-.4-.4h-.4l-7.6 7.6h-.4V.4l-.4-.4H9.2z"/>
    <path d="M18.5 32.8l-.4.4v4.6l-.4.4H2.3l-.4-.5v-4.6l-.4-.3H.4l-.4.4v6.5l.4.3h19.2l.4-.4v-6.5l-.4-.4h-1.1v.1z"/>
</symbol><symbol id="icon-email" viewBox="0 0 32 32">
    <path d="M27 5H5C2.9 5 1.1 6.8 1 9.1v13.7c.1 2.4 1.9 4.2 4 4.2h22c2.2 0 4-1.8 4-4.1V9.1C30.9 6.8 29.1 5 27 5zM5 7h22c.2 0 .3 0 .5.1L19 16.8c-.5.6-1.3.9-2 .9h-2c-.8 0-1.5-.3-2-.9L4.6 7H5zm24.1 15.9c0 1.2-1 2.2-2.1 2.2H5c-1.1 0-2.1-.9-2.1-2.2V9.1c0-.3.1-.6.2-.8l8.4 9.8c.9 1 2.2 1.6 3.5 1.6h2c1.3 0 2.6-.6 3.5-1.6l8.4-9.8c.1.3.2.5.2.8v13.8z"/>
</symbol><symbol id="icon-facebook" viewBox="0 0 32 32">
    <path d="M16 2C8.3 2 2 8.3 2 16c0 6.9 5 12.8 11.8 13.8l1.1.2V18.8h-3.3v-1.9h3.3v-3.8c0-2.7 1.4-4.1 4-4.1.7 0 1.3.1 2 .1v1.4h-.7c-1.5-.1-2.9 1-3.1 2.5v3.9h3.5l-.3 1.9h-3.2V30l1.1-.2C25 28.8 30 22.9 30 16c0-7.7-6.3-14-14-14zm3 25.7v-7h2.9l.9-5.7H19v-1.5c0-.8.3-1.1 1.2-1.1h2.6v-5H22c-1-.2-2-.3-3.1-.3-3.6 0-5.9 2.3-5.9 6V15H9.7v5.7H13v7C7.6 26.4 3.9 21.5 3.9 16 3.9 9.3 9.3 3.9 16 3.9c6.7 0 12.1 5.4 12.1 12.1 0 5.5-3.7 10.4-9.1 11.7z"/>
</symbol><symbol id="icon-instagram" viewBox="0 0 32 32">
    <path d="M21.2 3H10.8C6.5 3 3 6.5 3 10.8v10.4c0 4.3 3.5 7.8 7.8 7.8h10.4c4.3 0 7.8-3.5 7.8-7.8V10.8C29 6.5 25.5 3 21.2 3zM27 21.2c0 3.2-2.6 5.8-5.9 5.9H10.8C7.6 27 5 24.4 5 21.2V10.8C5 7.6 7.6 5 10.8 5h10.4c3.2 0 5.8 2.6 5.9 5.9v10.3zM16.1 9.8c-3.4 0-6.2 2.8-6.2 6.2 0 3.4 2.8 6.2 6.2 6.2 3.4 0 6.2-2.8 6.2-6.2 0-3.4-2.7-6.2-6.2-6.2zm0 10.5c-2.4 0-4.3-1.9-4.3-4.3s1.9-4.3 4.3-4.3 4.3 1.9 4.3 4.3-1.9 4.3-4.3 4.3zm8.3-11.1c0 .8-.6 1.5-1.5 1.6s-1.5-.6-1.6-1.5v-.1c0-.8.7-1.5 1.6-1.5.8 0 1.5.7 1.5 1.5z"/>
</symbol><symbol id="icon-linked-in" viewBox="0 0 32 32">
    <path d="M22.5 10c-1.5-.1-3 .4-4.3 1.3v-.9H11V30h7.4v-9.7c0-2.9.8-3.5 2.3-3.5 1.4 0 1.8.8 1.8 3.7V30H30V19.4c0-4.4-.9-9.4-7.5-9.4zM28 28h-3.4v-7.5c0-1.8 0-5.7-3.8-5.7-4.3 0-4.3 4.1-4.3 5.5V28H13V12.5h3.2v1.4l.1 1h1.6l.3-.5c.9-1.5 2.5-2.4 4.3-2.3 4.1 0 5.5 1.9 5.5 7.4V28zM5.8 1C3.5 1 1.6 2.9 1.6 5.2c0 2.3 1.9 4.2 4.2 4.2S10 7.5 10 5.2C9.9 2.9 8.1 1 5.8 1zm0 6.4c-1.2 0-2.2-1-2.2-2.2S4.6 3 5.8 3C7 3 7.9 4 7.9 5.2c0 1.2-.9 2.2-2.1 2.2zM2 30h7.5V10.5H2V30zm2-17.5h3.5V28H4V12.5z"/>
</symbol><symbol id="icon-logo-icon" viewBox="0 0 79 83">
    <path d="M39.21 19.16c-11 0-17.25 7.92-17.25 22.17 0 14.25 6.27 22.17 17.25 22.17 10.67 0 16.76-7.4 17.21-20.34l2-2h18l2 2v1.77a39.28 39.28 0 0 1-11 26.74C56.68 82.46 43.15 82.5 39.21 82.5 15.68 82.5 0 66.67 0 41.33 0 15.99 15.68.16 39.21.16h37.21l2 2v15l-2 2H39.21z"/>
</symbol><symbol id="icon-logo-text" viewBox="0 0 80 83">
    <path d="M10.06 35.88v-.18a2.5 2.5 0 0 0 1.77-2.64c0-2.29-1.77-3.17-3.54-3.17H2.62l-.18.18v12l.18.17h6c1.77 0 3.54-.88 3.54-3.34a2.76 2.76 0 0 0-2.1-3.02zm-5.14-3.7l.18-.17h2.83c1.06 0 1.42.52 1.42 1.4a1.3 1.3 0 0 1-1.42 1.41H5.1l-.18-.17v-2.47zm3 7.93H5.1l-.18-.18v-2.82l.18-.17h2.83c1.24 0 1.77.53 1.77 1.58s-.53 1.59-1.77 1.59h-.01zm5.85-10.22l-.18.18v11.98l.18.17h8.31l.18-.17v-1.77l-.18-.17h-5.84l-.17-.18v-2.82l.17-.17h5.49l.18-.18V35l-.18-.18h-5.49l-.17-.17v-2.47l.17-.17h5.84l.18-.18v-1.76l-.18-.18h-8.31zm20.97 11.47l-3.13-4.07v-.18a3.48 3.48 0 0 0 2.66-3.52c0-2.47-1.77-3.7-4.25-3.7h-5.84l-.18.18v12l.18.17h2.12l.18-.17v-4.6l.18-.18h1.77l.35.18 3.54 4.58.36.17h1.88l.18-.17v-.69zM30 35.18h-3.36l-.18-.18v-2.82l.18-.17H30c1.06 0 1.77.35 1.77 1.58s-.69 1.59-1.77 1.59zm16.57.36h-5.69l-.17.18v1.75l.17.17h3.05l.18.18c0 1.31-.94 2.47-2.87 2.47-2.31 0-3.54-1.77-3.54-4.23 0-2.46 1.23-4.23 3.53-4.23a3.55 3.55 0 0 1 1.87.43 3.61 3.61 0 0 1 1.17 1h.3L45.83 32v-.25a5.23 5.23 0 0 0-4.6-2c-3.71 0-6 2.65-6 6.35 0 3.7 2.3 6.34 6 6.34 6.36 0 5.51-6.67 5.51-6.67l-.17-.23zM23.62 15.21l-.18-.18h-2.12l-.18.18v7.4c0 1.76-.71 2.82-2.48 2.82s-2.48-1.06-2.48-2.82v-7.4L16 15h-2.12l-.18.18v7.4c0 3.17 1.77 4.93 5 4.93s5-1.76 5-4.93l-.08-7.37zm1.47 1.94l-.18-.18v-1.76l.18-.18H35l.18.18v1.76l-.18.18h-3.54l-.18.17v9.87l-.17.18h-2.13l-.17-.18v-9.87l-.18-.17h-3.54zm11.61-2.12l-.18.18v1.76l.18.18h3.54l.17.17v9.87l.18.18h2.13l.17-.18v-9.87l.18-.17h3.54l.18-.18v-1.76l-.18-.18H36.7zm19.91 0l.18.18v1.76l-.18.18h-5.84l-.18.17v2.47l.18.18h5.49l.18.17v1.76l-.18.18h-5.49l-.18.18v2.81l.18.18h5.84l.18.18v1.76l-.18.18h-8.32l-.17-.18V15.21l.17-.18h8.32zm12.13 0h-2.12l-.18.18v8.1h-.18l-4.78-8.1-.35-.18h-2.48l-.18.18v11.98l.18.18h2.12l.18-.18v-8.1h.18l4.78 8.1.35.18h2.48l.18-.18V15.21l-.18-.18zm-56.36 5.84s.84 6.67-5.52 6.67c-3.72 0-6-2.64-6-6.34 0-3.7 2.3-6.34 6-6.34a5.26 5.26 0 0 1 4.61 2v.26L10.2 18.4h-.31a3.62 3.62 0 0 0-3.04-1.43c-2.29 0-3.53 1.77-3.53 4.23 0 2.46 1.24 4.23 3.54 4.23 1.94 0 2.87-1.15 2.87-2.47l-.17-.18h-3l-.18-.17v-1.75l.18-.17h5.69l.13.18zm-7.64-8.54L.84 2.11V.35l.18-.17h1.59l.18.17 3.19 8.63h.17L9.34.35l.18-.17h1.59l.18.17v1.76l-3.9 10.22-.17.18H4.91l-.17-.18zm22.47.18l.18-.18v-8.1h.18l4.78 8.1.35.18h2.48l.18-.18V.35l-.18-.17h-2.12l-.18.17v8.11h-.18L27.92.35l-.35-.17h-2.48l-.18.17v11.98l.18.18h2.12zM17.63 0c-3.72 0-6 2.64-6 6.34 0 3.7 2.3 6.34 6 6.34s6-2.64 6-6.34c0-3.7-2.28-6.34-6-6.34zm0 10.57c-2.3 0-3.54-1.76-3.54-4.23 0-2.47 1.24-4.23 3.54-4.23s3.54 1.77 3.54 4.23c0 2.46-1.24 4.23-3.54 4.23z"/>
</symbol><symbol id="icon-pause" viewBox="0 0 256 256">
    <path d="M128 0C57.3 0 0 57.3 0 128s57.3 128 128 128 128-57.3 128-128S198.7 0 128 0zm0 240c-61.9 0-112-50.1-112-112S66.1 16 128 16s112 50.1 112 112-50.1 112-112 112zM105.5 64l2.5 2.6v122.8l-2.5 2.6h-15l-2.5-2.6V66.6l2.5-2.6h15zm60 0l2.5 2.6v122.8l-2.5 2.6h-15l-2.5-2.6V66.6l2.5-2.6h15z"/>
</symbol><symbol id="icon-pdf" viewBox="0 0 15 18">
    <title>
        pdf
    </title>
    <path d="M10 0H0v18h15V5l-5-5zm4 17H1V1h8v5h5v11z"/>
</symbol><symbol id="icon-play" viewBox="0 0 256 256">
    <path d="M128 0C57.3 0 0 57.3 0 128s57.3 128 128 128 128-57.3 128-128S198.7 0 128 0zm0 240c-61.9 0-112-50.1-112-112S66.1 16 128 16s112 50.1 112 112-50.1 112-112 112zM99.9 64l91.1 58.3v12.9L99.9 192H87.5l-2.5-2.6V66.6l2.5-2.6h12.4z"/>
</symbol><symbol id="icon-plus" viewBox="0 0 17 17">
    <path d="M16.92 9V7.92l-.36-.36H9.72l-.36-.36V.36L9 0H7.92l-.36.36V7.2l-.36.36H.36L0 7.92V9l.36.36H7.2l.36.36v6.84l.36.36H9l.36-.36V9.72l.36-.36h6.84l.36-.36z"/>
</symbol><symbol id="icon-print" viewBox="0 0 26 25">
    <style>
        .st0{fill-rule:evenodd;clip-rule:evenodd}
    </style>
    <path class="st0" d="M19 12V7l-5-5H7v10H2v11h22V12h-5zM9 4h4v4h4v8H9V4zm14 18H3v-9h4v5h12v-5h4v9z"/>
</symbol><symbol id="icon-reset" viewBox="0 0 26 24">
    <path d="M25.912 12.762c-.065.457-.113.917-.198 1.37-.635 3.352-2.38 5.982-5.203 7.879-2.175 1.461-4.6 2.119-7.213 1.968-3.328-.192-6.12-1.55-8.36-4.025-.266-.293-.499-.615-.746-.925-.026-.033-.046-.07-.079-.123l1.524-1.077c3.023 4.326 8.787 5.385 13.033 3.082 3.846-2.085 6.05-6.408 5.147-10.88a10.062 10.062 0 0 0-8.994-8.087c-4.76-.42-8.512 2.407-10.007 5.703l3.002-1.442.823 1.704-5.832 2.811L0 4.89l1.704-.824L3.06 6.869l.195-.374C5.009 3.198 7.71 1.1 11.346.287 17.644-1.12 23.95 2.785 25.534 9.033c.166.658.224 1.344.334 2.016.01.066.03.13.044.194v1.519z"/>
</symbol><symbol id="icon-scroll-to-top" viewBox="0 0 20 29">
    <path d="M11.2 28.998l.4-.4v-21.6h.4l7.2 7.3h.4l.4-.4v-3.3l-.4-.8-9.2-9.4h-.8l-9.2 9.4-.4.9v3.3l.4.4h.4l7.2-7.4h.4v21.6l.4.4h2.4z"/>
</symbol></svg>